{
  "data": {
    "total": 13,
    "per_page": 6,
    "current_page": 2,
    "last_page": 10,
    "next_page_url": "http://121.201.14.60:8080/api/v1/product/222/comment/?page=3",
    "prev_page_url": "http://121.201.14.60:8080/api/v1/product/222/comment/?page=1",
    "data": [
      {
        "comment_user_id": 10,
        "user_name": "Dusty56",
        "stars": 3,
        "comment": "Officiis excepturi quia est quos sit. Facere nam libero aspernatur provident et et et.",
        "tags": [
          "时尚感",
          "很合适",
          "裙子很美"
        ],
        "images": [
          "http://7xoebc.com1.z0.glb.clouddn.com/NjYzNTkwLXh4anBnMTQ1MDYxNDE4OTU5Mg==?watermark/1/image/aHR0cDovLzd4b2ViYy5jb20xLnowLmdsYi5jbG91ZGRuLmNvbS9yZW50dm9ndWVfbG9nby5wbmc=/gravity/SouthEast/dx/20/dy/20",
          "http://7xoebc.com1.z0.glb.clouddn.com/NjQ4OC0xMDB4MTAwanBnMTQ1MDYxNDE0NTg4OQ==?watermark/1/image/aHR0cDovLzd4b2ViYy5jb20xLnowLmdsYi5jbG91ZGRuLmNvbS9yZW50dm9ndWVfbG9nby5wbmc=/gravity/SouthEast/dx/20/dy/20",
          "http://7xoebc.com1.z0.glb.clouddn.com/NTk4NDItMTFwbmcxNDUwNjE0MTcyNTE5?watermark/1/image/aHR0cDovLzd4b2ViYy5jb20xLnowLmdsYi5jbG91ZGRuLmNvbS9yZW50dm9ndWVfbG9nby5wbmc=/gravity/SouthEast/dx/20/dy/20",
          "http://7xoebc.com1.z0.glb.clouddn.com/NTk4NDItMTFwbmcxNDUwNjE0MTcyNTE5?watermark/1/image/aHR0cDovLzd4b2ViYy5jb20xLnowLmdsYi5jbG91ZGRuLmNvbS9yZW50dm9ndWVfbG9nby5wbmc=/gravity/SouthEast/dx/20/dy/20"
        ],
        "size": "XL",
        "occasion": "晚会",
        "created_at": "2016-01-03 21:09:22"
      },
      {
        "comment_user_id": 7,
        "user_name": "Grace90",
        "stars": 5,
        "comment": "Iusto voluptatem incidunt sit. Numquam itaque cumque repellat debitis.",
        "tags": [
          "裙子很美",
          "很合适",
          "时尚感"
        ],
        "images": [
          "http://7xoebc.com1.z0.glb.clouddn.com/NjYzNTkwLXh4anBnMTQ1MDYxNDE4OTU5Mg==?watermark/1/image/aHR0cDovLzd4b2ViYy5jb20xLnowLmdsYi5jbG91ZGRuLmNvbS9yZW50dm9ndWVfbG9nby5wbmc=/gravity/SouthEast/dx/20/dy/20",
          "http://7xoebc.com1.z0.glb.clouddn.com/NjQ4OC0xMDB4MTAwanBnMTQ1MDYxNDE0NTg4OQ==?watermark/1/image/aHR0cDovLzd4b2ViYy5jb20xLnowLmdsYi5jbG91ZGRuLmNvbS9yZW50dm9ndWVfbG9nby5wbmc=/gravity/SouthEast/dx/20/dy/20",
          "http://7xoebc.com1.z0.glb.clouddn.com/NTk4NDItMTFwbmcxNDUwNjE0MTcyNTE5?watermark/1/image/aHR0cDovLzd4b2ViYy5jb20xLnowLmdsYi5jbG91ZGRuLmNvbS9yZW50dm9ndWVfbG9nby5wbmc=/gravity/SouthEast/dx/20/dy/20",
          "http://7xoebc.com1.z0.glb.clouddn.com/NTk4NDItMTFwbmcxNDUwNjE0MTcyNTE5?watermark/1/image/aHR0cDovLzd4b2ViYy5jb20xLnowLmdsYi5jbG91ZGRuLmNvbS9yZW50dm9ndWVfbG9nby5wbmc=/gravity/SouthEast/dx/20/dy/20"
        ],
        "size": "XL",
        "occasion": "年会",
        "created_at": "2016-01-03 21:09:22"
      },
      {
        "comment_user_id": 8,
        "user_name": "Schulist.T",
        "stars": 4,
        "comment": "Sed aut incidunt distinctio non. Quisquam qui ut quidem. Cum et qui sed.",
        "tags": [
          "时尚感",
          "女神范",
          "时尚感"
        ],
        "images": [
          "http://7xoebc.com1.z0.glb.clouddn.com/NjYzNTkwLXh4anBnMTQ1MDYxNDE4OTU5Mg==?watermark/1/image/aHR0cDovLzd4b2ViYy5jb20xLnowLmdsYi5jbG91ZGRuLmNvbS9yZW50dm9ndWVfbG9nby5wbmc=/gravity/SouthEast/dx/20/dy/20",
          "http://7xoebc.com1.z0.glb.clouddn.com/NjQ4OC0xMDB4MTAwanBnMTQ1MDYxNDE0NTg4OQ==?watermark/1/image/aHR0cDovLzd4b2ViYy5jb20xLnowLmdsYi5jbG91ZGRuLmNvbS9yZW50dm9ndWVfbG9nby5wbmc=/gravity/SouthEast/dx/20/dy/20",
          "http://7xoebc.com1.z0.glb.clouddn.com/NTk4NDItMTFwbmcxNDUwNjE0MTcyNTE5?watermark/1/image/aHR0cDovLzd4b2ViYy5jb20xLnowLmdsYi5jbG91ZGRuLmNvbS9yZW50dm9ndWVfbG9nby5wbmc=/gravity/SouthEast/dx/20/dy/20",
          "http://7xoebc.com1.z0.glb.clouddn.com/NTk4NDItMTFwbmcxNDUwNjE0MTcyNTE5?watermark/1/image/aHR0cDovLzd4b2ViYy5jb20xLnowLmdsYi5jbG91ZGRuLmNvbS9yZW50dm9ndWVfbG9nby5wbmc=/gravity/SouthEast/dx/20/dy/20"
        ],
        "size": "XL",
        "occasion": "年会",
        "created_at": "2016-01-03 21:09:22"
      },
      {
        "comment_user_id": 8,
        "user_name": "Schulist.T",
        "stars": 1,
        "comment": "Dolorum rerum repellendus et nihil id dignissimos. Placeat nam quos quisquam incidunt quis.",
        "tags": [
          "很合适",
          "时尚感",
          "女神范"
        ],
        "images": [
          "http://7xoebc.com1.z0.glb.clouddn.com/NjYzNTkwLXh4anBnMTQ1MDYxNDE4OTU5Mg==?watermark/1/image/aHR0cDovLzd4b2ViYy5jb20xLnowLmdsYi5jbG91ZGRuLmNvbS9yZW50dm9ndWVfbG9nby5wbmc=/gravity/SouthEast/dx/20/dy/20",
          "http://7xoebc.com1.z0.glb.clouddn.com/NjQ4OC0xMDB4MTAwanBnMTQ1MDYxNDE0NTg4OQ==?watermark/1/image/aHR0cDovLzd4b2ViYy5jb20xLnowLmdsYi5jbG91ZGRuLmNvbS9yZW50dm9ndWVfbG9nby5wbmc=/gravity/SouthEast/dx/20/dy/20",
          "http://7xoebc.com1.z0.glb.clouddn.com/NTk4NDItMTFwbmcxNDUwNjE0MTcyNTE5?watermark/1/image/aHR0cDovLzd4b2ViYy5jb20xLnowLmdsYi5jbG91ZGRuLmNvbS9yZW50dm9ndWVfbG9nby5wbmc=/gravity/SouthEast/dx/20/dy/20",
          "http://7xoebc.com1.z0.glb.clouddn.com/NTk4NDItMTFwbmcxNDUwNjE0MTcyNTE5?watermark/1/image/aHR0cDovLzd4b2ViYy5jb20xLnowLmdsYi5jbG91ZGRuLmNvbS9yZW50dm9ndWVfbG9nby5wbmc=/gravity/SouthEast/dx/20/dy/20"
        ],
        "size": "L",
        "occasion": "年会",
        "created_at": "2016-01-03 21:09:22"
      },
      {
        "comment_user_id": 1,
        "user_name": "Therese21",
        "stars": 4,
        "comment": "Necessitatibus eaque delectus ut eaque sint. Dolor et nulla libero aut omnis.",
        "tags": [
          "裙子很美",
          "时尚感",
          "很合适"
        ],
        "images": [
          "http://7xoebc.com1.z0.glb.clouddn.com/NjYzNTkwLXh4anBnMTQ1MDYxNDE4OTU5Mg==?watermark/1/image/aHR0cDovLzd4b2ViYy5jb20xLnowLmdsYi5jbG91ZGRuLmNvbS9yZW50dm9ndWVfbG9nby5wbmc=/gravity/SouthEast/dx/20/dy/20",
          "http://7xoebc.com1.z0.glb.clouddn.com/NjQ4OC0xMDB4MTAwanBnMTQ1MDYxNDE0NTg4OQ==?watermark/1/image/aHR0cDovLzd4b2ViYy5jb20xLnowLmdsYi5jbG91ZGRuLmNvbS9yZW50dm9ndWVfbG9nby5wbmc=/gravity/SouthEast/dx/20/dy/20",
          "http://7xoebc.com1.z0.glb.clouddn.com/NTk4NDItMTFwbmcxNDUwNjE0MTcyNTE5?watermark/1/image/aHR0cDovLzd4b2ViYy5jb20xLnowLmdsYi5jbG91ZGRuLmNvbS9yZW50dm9ndWVfbG9nby5wbmc=/gravity/SouthEast/dx/20/dy/20",
          "http://7xoebc.com1.z0.glb.clouddn.com/NTk4NDItMTFwbmcxNDUwNjE0MTcyNTE5?watermark/1/image/aHR0cDovLzd4b2ViYy5jb20xLnowLmdsYi5jbG91ZGRuLmNvbS9yZW50dm9ndWVfbG9nby5wbmc=/gravity/SouthEast/dx/20/dy/20"
        ],
        "size": "L",
        "occasion": "年会",
        "created_at": "2016-01-03 21:09:22"
      },
      {
        "comment_user_id": 6,
        "user_name": "McDermott.",
        "stars": 1,
        "comment": "Non quos ratione cupiditate. Est qui deleniti est dolores beatae atque. Fuga vitae nihil id quas.",
        "tags": [
          "很合适",
          "很合适",
          "裙子很美"
        ],
        "images": [
          "http://7xoebc.com1.z0.glb.clouddn.com/NjYzNTkwLXh4anBnMTQ1MDYxNDE4OTU5Mg==?watermark/1/image/aHR0cDovLzd4b2ViYy5jb20xLnowLmdsYi5jbG91ZGRuLmNvbS9yZW50dm9ndWVfbG9nby5wbmc=/gravity/SouthEast/dx/20/dy/20",
          "http://7xoebc.com1.z0.glb.clouddn.com/NjQ4OC0xMDB4MTAwanBnMTQ1MDYxNDE0NTg4OQ==?watermark/1/image/aHR0cDovLzd4b2ViYy5jb20xLnowLmdsYi5jbG91ZGRuLmNvbS9yZW50dm9ndWVfbG9nby5wbmc=/gravity/SouthEast/dx/20/dy/20",
          "http://7xoebc.com1.z0.glb.clouddn.com/NTk4NDItMTFwbmcxNDUwNjE0MTcyNTE5?watermark/1/image/aHR0cDovLzd4b2ViYy5jb20xLnowLmdsYi5jbG91ZGRuLmNvbS9yZW50dm9ndWVfbG9nby5wbmc=/gravity/SouthEast/dx/20/dy/20",
          "http://7xoebc.com1.z0.glb.clouddn.com/NTk4NDItMTFwbmcxNDUwNjE0MTcyNTE5?watermark/1/image/aHR0cDovLzd4b2ViYy5jb20xLnowLmdsYi5jbG91ZGRuLmNvbS9yZW50dm9ndWVfbG9nby5wbmc=/gravity/SouthEast/dx/20/dy/20"
        ],
        "size": "XXL",
        "occasion": "晚会",
        "created_at": "2016-01-03 21:09:22"
      }
    ]
  }
}